mtllib ./v.mtl
v -1.000000 0.000000 1.000000
v 1.000000 0.000000 1.000000
v 1.000000 0.000000 -1.000000
v -1.000000 0.000000 -1.000000
v -1.000000 0.200000 1.000000
v 1.000000 0.200000 1.000000
v 1.000000 0.200000 -1.000000
v -1.000000 0.200000 -1.000000
v -1.000000 1.200000 1.000000
v 1.000000 1.200000 1.000000
v 1.000000 1.200000 -1.000000
v -1.000000 1.200000 -1.000000
v -1.000000 1.200000 1.000000
v 1.000000 1.200000 1.000000
v 1.000000 1.200000 -1.000000
v -1.000000 1.200000 -1.000000
v -1.050000 1.200000 1.050000
v 1.050000 1.200000 1.050000
v 1.050000 1.200000 -1.050000
v -1.050000 1.200000 -1.050000
v -1.050000 1.300000 1.050000
v 1.050000 1.300000 1.050000
v 1.050000 1.300000 -1.050000
v -1.050000 1.300000 -1.050000
v -1.000000 1.300000 1.000000
v 1.000000 1.300000 1.000000
v 1.000000 1.300000 -1.000000
v -1.000000 1.300000 -1.000000
v -1.000000 2.300000 1.000000
v 1.000000 2.300000 1.000000
v 1.000000 2.300000 -1.000000
v -1.000000 2.300000 -1.000000
v -1.000000 2.300000 1.000000
v 1.000000 2.300000 1.000000
v 1.000000 2.300000 -1.000000
v -1.000000 2.300000 -1.000000
v -1.050000 2.300000 1.050000
v 1.050000 2.300000 1.050000
v 1.050000 2.300000 -1.050000
v -1.050000 2.300000 -1.050000
v -1.050000 2.400000 1.050000
v 1.050000 2.400000 1.050000
v 1.050000 2.400000 -1.050000
v -1.050000 2.400000 -1.050000
v -1.000000 2.400000 1.000000
v 1.000000 2.400000 1.000000
v 1.000000 2.400000 -1.000000
v -1.000000 2.400000 -1.000000
v -1.000000 2.400000 1.000000
v 1.000000 2.400000 1.000000
v 1.000000 2.400000 -1.000000
v -1.000000 2.400000 -1.000000
v -0.800000 2.400000 0.800000
v 0.800000 2.400000 0.800000
v 0.800000 2.400000 -0.800000
v -0.800000 2.400000 -0.800000
v -0.800000 2.400000 0.800000
v 0.800000 2.400000 0.800000
v 0.800000 2.400000 -0.800000
v -0.800000 2.400000 -0.800000
v -0.760000 2.400000 0.760000
v 0.760000 2.400000 0.760000
v 0.760000 2.400000 -0.760000
v -0.760000 2.400000 -0.760000
v -0.760000 2.300000 0.760000
v 0.760000 2.300000 0.760000
v 0.760000 2.300000 -0.760000
v -0.760000 2.300000 -0.760000
v -0.800000 2.300000 0.800000
v 0.800000 2.300000 0.800000
v 0.800000 2.300000 -0.800000
v -0.800000 2.300000 -0.800000
v -0.640000 2.300000 0.640000
v 0.640000 2.300000 0.640000
v 0.640000 2.300000 -0.640000
v -0.640000 2.300000 -0.640000
v 0.000000 2.800000 0.000000
usemtl aqua
f 8 7 4
f 7 3 4
f 7 6 3
f 6 2 3
f 6 5 2
f 5 1 2
f 5 8 1
f 8 4 1
usemtl green
f 12 11 8
f 11 7 8
f 11 10 7
f 10 6 7
f 10 9 6
f 9 5 6
f 9 12 5
f 12 8 5
usemtl red
f 20 19 16
f 19 15 16
f 19 18 15
f 18 14 15
f 18 17 14
f 17 13 14
f 17 20 13
f 20 16 13
f 24 23 20
f 23 19 20
f 23 22 19
f 22 18 19
f 22 21 18
f 21 17 18
f 21 24 17
f 24 20 17
f 28 27 24
f 27 23 24
f 27 26 23
f 26 22 23
f 26 25 22
f 25 21 22
f 25 28 21
f 28 24 21
usemtl green
f 32 31 28
f 31 27 28
f 31 30 27
f 30 26 27
f 30 29 26
f 29 25 26
f 29 32 25
f 32 28 25
usemtl red
f 40 39 36
f 39 35 36
f 39 38 35
f 38 34 35
f 38 37 34
f 37 33 34
f 37 40 33
f 40 36 33
f 44 43 40
f 43 39 40
f 43 42 39
f 42 38 39
f 42 41 38
f 41 37 38
f 41 44 37
f 44 40 37
f 48 47 44
f 47 43 44
f 47 46 43
f 46 42 43
f 46 45 42
f 45 41 42
f 45 48 41
f 48 44 41
f 56 55 52
f 55 51 52
f 55 54 51
f 54 50 51
f 54 53 50
f 53 49 50
f 53 56 49
f 56 52 49
usemtl red
f 64 63 60
f 63 59 60
f 63 62 59
f 62 58 59
f 62 61 58
f 61 57 58
f 61 64 57
f 64 60 57
f 68 67 64
f 67 63 64
f 67 66 63
f 66 62 63
f 66 65 62
f 65 61 62
f 65 68 61
f 68 64 61
f 72 71 68
f 71 67 68
f 71 70 67
f 70 66 67
f 70 69 66
f 69 65 66
f 69 72 65
f 72 68 65
usemtl yellow
f 69 70 72
f 70 71 72
usemtl orange
f 77 73 74
f 77 74 75
f 77 75 76
f 77 76 73
